<?xml version="1.0" encoding="UTF-8" standalone="no"?>
<svg width="840px" height="940px" viewBox="0 0 840 940" version="1.1" xmlns="http://www.w3.org/2000/svg" xmlns:xlink="http://www.w3.org/1999/xlink">
    <!-- Generator: Sketch 39.1 (31720) - http://www.bohemiancoding.com/sketch -->
    <title>lime-hexagon</title>
    <desc>Created with Sketch.</desc>
    <defs></defs>
    <g id="Page-1" stroke="none" stroke-width="1" fill="none" fill-rule="evenodd">
        <g id="hexagon-lime" fill="#B0D400">
            <g id="Page-1">
                <path d="M420,1.13686838e-13 C402.037363,1.13686838e-13 384.076637,3.94974025 370.449546,11.8473118 L49.5504546,197.843997 C22.2981818,213.63914 -5.68434189e-14,252.336668 -5.68434189e-14,283.833413 L-5.68434189e-14,656.166587 C-5.68434189e-14,687.665241 22.2981818,726.36086 49.5504546,742.156003 L370.449546,928.152691 C384.076637,936.050261 402.037363,940 420,940 C437.962637,940 455.923363,936.050261 469.550454,928.152691 L790.449546,742.156003 C817.701818,726.36086 840,687.665241 840,656.166587 L840,283.833413 C840,252.336668 817.701818,213.63914 790.449546,197.843997 L469.550454,11.8473118 C455.923363,3.94974025 437.962637,1.13686838e-13 420,1.13686838e-13" id="lime-hexagon" transform="translate(420.000000, 470.000000) rotate(180.000000) translate(-420.000000, -470.000000) "></path>
            </g>
        </g>
    </g>
</svg>